C:\Srikar Kini\Misscln\NewTours\src\test\java\cucumberSerenity\BookingsSerenityStepDef.java
C:\Srikar Kini\Misscln\NewTours\src\test\java\runners\RunNewToursTest.java
C:\Srikar Kini\Misscln\NewTours\src\test\java\cucumberSerenity\BookingsCucumberStepDef.java
